Data Visualization with R and the Tidyverse – Data Visualization - 3. Make Some Graphs
…
The most common tidyr operation

Pivoting from wide to long:

edu

# A tibble: 366 × 11
   age   sex    year total elem4 elem8   hs3   hs4 coll3 coll4 median
   <chr> <chr> <int> <int> <int> <int> <dbl> <dbl> <dbl> <dbl>  <dbl>
 1 25-34 Male   2016 21845   116   468  1427  6386  6015  7432     NA
 2 25-34 Male   2015 21427   166   488  1584  6198  5920  7071     NA
 3 25-34 Male   2014 21217   151   512  1611  6323  5910  6710     NA
 4 25-34 Male   2013 20816   161   582  1747  6058  5749  6519     NA
 5 25-34 Male   2012 20464   161   579  1707  6127  5619  6270     NA
 6 25-34 Male   2011 20985   190   657  1791  6444  5750  6151     NA
 7 25-34 Male   2010 20689   186   641  1866  6458  5587  5951     NA
 8 25-34 Male   2009 20440   184   695  1806  6495  5508  5752     NA
 9 25-34 Male   2008 20210   172   714  1874  6356  5277  5816     NA
10 25-34 Male   2007 20024   246   757  1930  6361  5137  5593     NA
# ℹ 356 more rows

Here, a “Level of Schooling Attained” variable is spread across the columns, from elem4 to coll4. We need a key column called “education” with the various levels of schooling, and a corresponding value column containing the counts.

Wide to long with pivot_longer()

We’re going to put the columns elem4:coll4 into a new column, creating a new categorical measure named education. The numbers currently under each column will become a new value column corresponding to that level of education.

edu |> 
  pivot_longer(elem4:coll4, names_to = "education")

# A tibble: 2,196 × 7
   age   sex    year total median education value
   <chr> <chr> <int> <int>  <dbl> <chr>     <dbl>
 1 25-34 Male   2016 21845     NA elem4       116
 2 25-34 Male   2016 21845     NA elem8       468
 3 25-34 Male   2016 21845     NA hs3        1427
 4 25-34 Male   2016 21845     NA hs4        6386
 5 25-34 Male   2016 21845     NA coll3      6015
 6 25-34 Male   2016 21845     NA coll4      7432
 7 25-34 Male   2015 21427     NA elem4       166
 8 25-34 Male   2015 21427     NA elem8       488
 9 25-34 Male   2015 21427     NA hs3        1584
10 25-34 Male   2015 21427     NA hs4        6198
# ℹ 2,186 more rows

Wide to long with pivot_longer()

We can name the value column to whatever we like. Here it’s a number of people.

edu |> 
  pivot_longer(elem4:coll4, 
               names_to = "education", 
               values_to = "n")

# A tibble: 2,196 × 7
   age   sex    year total median education     n
   <chr> <chr> <int> <int>  <dbl> <chr>     <dbl>
 1 25-34 Male   2016 21845     NA elem4       116
 2 25-34 Male   2016 21845     NA elem8       468
 3 25-34 Male   2016 21845     NA hs3        1427
 4 25-34 Male   2016 21845     NA hs4        6386
 5 25-34 Male   2016 21845     NA coll3      6015
 6 25-34 Male   2016 21845     NA coll4      7432
 7 25-34 Male   2015 21427     NA elem4       166
 8 25-34 Male   2015 21427     NA elem8       488
 9 25-34 Male   2015 21427     NA hs3        1584
10 25-34 Male   2015 21427     NA hs4        6198
# ℹ 2,186 more rows
…
I want to load files from the data folder, but I also want you to be able to load them. I’m writing this from somewhere deep in the slides folder, but you won’t be there. Also, I’m on a Mac, but you may not be.

Where’s the data? Using here()

So:

## Load the file relative to the path from the top of the project, without separators, etc
organs <- read_csv(file = here("data", "organdonation.csv"))

Where’s the data? Using here()

organs

# A tibble: 238 × 21
   country  year donors   pop pop.dens   gdp gdp.lag health health.lag pubhealth
   <chr>   <dbl>  <dbl> <dbl>    <dbl> <dbl>   <dbl>  <dbl>      <dbl>     <dbl>
 1 Austra…    NA  NA    17065    0.220 16774   16591   1300       1224       4.8
 2 Austra…  1991  12.1  17284    0.223 17171   16774   1379       1300       5.4
 3 Austra…  1992  12.4  17495    0.226 17914   17171   1455       1379       5.4
 4 Austra…  1993  12.5  17667    0.228 18883   17914   1540       1455       5.4
 5 Austra…  1994  10.2  17855    0.231 19849   18883   1626       1540       5.4
 6 Austra…  1995  10.2  18072    0.233 21079   19849   1737       1626       5.5
 7 Austra…  1996  10.6  18311    0.237 21923   21079   1846       1737       5.6
 8 Austra…  1997  10.3  18518    0.239 22961   21923   1948       1846       5.7
 9 Austra…  1998  10.5  18711    0.242 24148   22961   2077       1948       5.9
10 Austra…  1999   8.67 18926    0.244 25445   24148   2231       2077       6.1
# ℹ 228 more rows
# ℹ 11 more variables: roads <dbl>, cerebvas <dbl>, assault <dbl>,
#   external <dbl>, txp.pop <dbl>, world <chr>, opt <chr>, consent.law <chr>,
#   consent.practice <chr>, consistent <chr>, ccode <chr>
…
Make these functions available with library(haven)

You can read files remotely, too

You can give these functions local files, or they can also be pointed at URLs.

Compressed files (.zip, .tar.gz) will be automatically uncompressed.

(Be careful what you download from remote locations!)

organ_remote <- read_csv("http://kjhealy.co/organdonation.csv")
organ_remote

# A tibble: 238 × 21
   country  year donors   pop pop.dens   gdp gdp.lag health health.lag pubhealth
   <chr>   <dbl>  <dbl> <dbl>    <dbl> <dbl>   <dbl>  <dbl>      <dbl>     <dbl>
 1 Austra…    NA  NA    17065    0.220 16774   16591   1300       1224       4.8
 2 Austra…  1991  12.1  17284    0.223 17171   16774   1379       1300       5.4
 3 Austra…  1992  12.4  17495    0.226 17914   17171   1455       1379       5.4
 4 Austra…  1993  12.5  17667    0.228 18883   17914   1540       1455       5.4
 5 Austra…  1994  10.2  17855    0.231 19849   18883   1626       1540       5.4
 6 Austra…  1995  10.2  18072    0.233 21079   19849   1737       1626       5.5
 7 Austra…  1996  10.6  18311    0.237 21923   21079   1846       1737       5.6
 8 Austra…  1997  10.3  18518    0.239 22961   21923   1948       1846       5.7
 9 Austra…  1998  10.5  18711    0.242 24148   22961   2077       1948       5.9
10 Austra…  1999   8.67 18926    0.244 25445   24148   2231       2077       6.1
# ℹ 228 more rows
# ℹ 11 more variables: roads <dbl>, cerebvas <dbl>, assault <dbl>,
#   external <dbl>, txp.pop <dbl>, world <chr>, opt <chr>, consent.law <chr>,
#   consent.practice <chr>, consistent <chr>, ccode <chr>
…
Let’s go piece by piece

Start with the data

gapminder

# A tibble: 1,704 × 6
   country     continent  year lifeExp      pop gdpPercap
   <fct>       <fct>     <int>   <dbl>    <int>     <dbl>
 1 Afghanistan Asia       1952    28.8  8425333      779.
 2 Afghanistan Asia       1957    30.3  9240934      821.
 3 Afghanistan Asia       1962    32.0 10267083      853.
 4 Afghanistan Asia       1967    34.0 11537966      836.
 5 Afghanistan Asia       1972    36.1 13079460      740.
 6 Afghanistan Asia       1977    38.4 14880372      786.
 7 Afghanistan Asia       1982    39.9 12881816      978.
 8 Afghanistan Asia       1987    40.8 13867957      852.
 9 Afghanistan Asia       1992    41.7 16317921      649.
10 Afghanistan Asia       1997    41.8 22227415      635.
# ℹ 1,694 more rows
…
