Data Visualization with R and the Tidyverse – Data Visualization - 6. Work With Models
…
Transform and summarize first.
Then send your clean tables to ggplot.

Look inside the box

Objects are To-Do List Bento Boxes

gapminder

# A tibble: 1,704 × 6
   country     continent  year lifeExp      pop gdpPercap
   <fct>       <fct>     <int>   <dbl>    <int>     <dbl>
 1 Afghanistan Asia       1952    28.8  8425333      779.
 2 Afghanistan Asia       1957    30.3  9240934      821.
 3 Afghanistan Asia       1962    32.0 10267083      853.
 4 Afghanistan Asia       1967    34.0 11537966      836.
 5 Afghanistan Asia       1972    36.1 13079460      740.
 6 Afghanistan Asia       1977    38.4 14880372      786.
 7 Afghanistan Asia       1982    39.9 12881816      978.
 8 Afghanistan Asia       1987    40.8 13867957      852.
 9 Afghanistan Asia       1992    41.7 16317921      649.
10 Afghanistan Asia       1997    41.8 22227415      635.
# ℹ 1,694 more rows
…
min_gdp <- min(gapminder$gdpPercap)
max_gdp <- max(gapminder$gdpPercap)
med_pop <- median(gapminder$pop)

# Make a grid of predictor values
pred_df <- expand_grid(gdpPercap = (seq(from = min_gdp,
                                        to = max_gdp,
                                        length.out = 100)),
                       pop = med_pop,
                       continent = c("Africa", "Americas",
                                     "Asia", "Europe", "Oceania"))

pred_df

# A tibble: 500 × 3
   gdpPercap      pop continent
       <dbl>    <dbl> <chr>    
 1      241. 7023596. Africa   
 2      241. 7023596. Americas 
 3      241. 7023596. Asia     
 4      241. 7023596. Europe   
 5      241. 7023596. Oceania  
 6     1385. 7023596. Africa   
 7     1385. 7023596. Americas 
 8     1385. 7023596. Asia     
 9     1385. 7023596. Europe   
10     1385. 7023596. Oceania  
# ℹ 490 more rows
…
Residual standard error: 8.336 on 1697 degrees of freedom
Multiple R-squared:  0.585, Adjusted R-squared:  0.5835 
F-statistic: 398.7 on 6 and 1697 DF,  p-value: < 2.2e-16

Observation level

augment(out)

# A tibble: 1,704 × 10
   lifeExp gdpPercap `log(pop)` continent .fitted .resid    .hat .sigma .cooksd
     <dbl>     <dbl>      <dbl> <fct>       <dbl>  <dbl>   <dbl>  <dbl>   <dbl>
 1    28.8      779.       15.9 Asia         56.5  -27.7 0.00302   8.31 0.00479
 2    30.3      821.       16.0 Asia         56.6  -26.2 0.00299   8.31 0.00426
 3    32.0      853.       16.1 Asia         56.7  -24.7 0.00296   8.32 0.00372
 4    34.0      836.       16.3 Asia         56.7  -22.7 0.00294   8.32 0.00313
 5    36.1      740.       16.4 Asia         56.8  -20.7 0.00294   8.32 0.00259
 6    38.4      786.       16.5 Asia         56.9  -18.4 0.00292   8.33 0.00205
 7    39.9      978.       16.4 Asia         56.9  -17.0 0.00291   8.33 0.00174
 8    40.8      852.       16.4 Asia         56.9  -16.0 0.00292   8.33 0.00155
 9    41.7      649.       16.6 Asia         56.9  -15.2 0.00294   8.33 0.00140
10    41.8      635.       16.9 Asia         57.1  -15.3 0.00297   8.33 0.00144
# ℹ 1,694 more rows
# ℹ 1 more variable: .std.resid <dbl>
…
A Kaplan-Meier Curve

Then we tidy it and draw the plot.

## Much nicer. (See how the column headers have been regularized, too.)
out_tidy <- tidy(out_surv)
out_tidy

# A tibble: 186 × 8
    time n.risk n.event n.censor estimate std.error conf.high conf.low
   <dbl>  <dbl>   <dbl>    <dbl>    <dbl>     <dbl>     <dbl>    <dbl>
 1     5    228       1        0    0.996   0.00419     1        0.988
 2    11    227       3        0    0.983   0.00845     1.00     0.967
 3    12    224       1        0    0.979   0.00947     0.997    0.961
 4    13    223       2        0    0.971   0.0113      0.992    0.949
 5    15    221       1        0    0.966   0.0121      0.990    0.944
 6    26    220       1        0    0.962   0.0129      0.987    0.938
 7    30    219       1        0    0.958   0.0136      0.984    0.933
 8    31    218       1        0    0.954   0.0143      0.981    0.927
 9    53    217       2        0    0.945   0.0157      0.975    0.917
10    54    215       1        0    0.941   0.0163      0.972    0.911
# ℹ 176 more rows
…
Residual standard error: 2.114 on 28 degrees of freedom
Multiple R-squared:  0.5572,    Adjusted R-squared:  0.5414 
F-statistic: 35.24 on 1 and 28 DF,  p-value: 2.173e-06

Grouped analysis and list columns

What if I want to do that for all Continent-Year combinations?

out_le <- gapminder |> group_by(continent, year) |>
    nest() 

out_le

# A tibble: 60 × 3
# Groups:   continent, year [60]
   continent  year data             
   <fct>     <int> <list>           
 1 Asia       1952 <tibble [33 × 4]>
 2 Asia       1957 <tibble [33 × 4]>
 3 Asia       1962 <tibble [33 × 4]>
 4 Asia       1967 <tibble [33 × 4]>
 5 Asia       1972 <tibble [33 × 4]>
 6 Asia       1977 <tibble [33 × 4]>
 7 Asia       1982 <tibble [33 × 4]>
 8 Asia       1987 <tibble [33 × 4]>
 9 Asia       1992 <tibble [33 × 4]>
10 Asia       1997 <tibble [33 × 4]>
# ℹ 50 more rows

Think of nesting as a kind of “super-grouping”. Look in the object inspector.

Grouped analysis and list columns

Europe ’77 is still in there.

out_le |> 
  filter(continent == "Europe" & year == 1977) |> 
  unnest(cols = c(data))

# A tibble: 30 × 6
# Groups:   continent, year [1]
   continent  year country                lifeExp      pop gdpPercap
   <fct>     <int> <fct>                    <dbl>    <int>     <dbl>
 1 Europe     1977 Albania                   68.9  2509048     3533.
 2 Europe     1977 Austria                   72.2  7568430    19749.
 3 Europe     1977 Belgium                   72.8  9821800    19118.
 4 Europe     1977 Bosnia and Herzegovina    69.9  4086000     3528.
 5 Europe     1977 Bulgaria                  70.8  8797022     7612.
 6 Europe     1977 Croatia                   70.6  4318673    11305.
 7 Europe     1977 Czech Republic            70.7 10161915    14800.
 8 Europe     1977 Denmark                   74.7  5088419    20423.
 9 Europe     1977 Finland                   72.5  4738902    15605.
10 Europe     1977 France                    73.8 53165019    18293.
# ℹ 20 more rows
…
out_le <- gapminder |>
    group_by(continent, year) |>
    nest() |> 
    mutate(model = map(data, fit_ols)) 

Grouped analysis and list columns

Now we have a new column. Each row of the model column contains a full regression for that continent-year.

out_le

# A tibble: 60 × 4
# Groups:   continent, year [60]
   continent  year data              model 
   <fct>     <int> <list>            <list>
 1 Asia       1952 <tibble [33 × 4]> <lm>  
 2 Asia       1957 <tibble [33 × 4]> <lm>  
 3 Asia       1962 <tibble [33 × 4]> <lm>  
 4 Asia       1967 <tibble [33 × 4]> <lm>  
 5 Asia       1972 <tibble [33 × 4]> <lm>  
 6 Asia       1977 <tibble [33 × 4]> <lm>  
 7 Asia       1982 <tibble [33 × 4]> <lm>  
 8 Asia       1987 <tibble [33 × 4]> <lm>  
 9 Asia       1992 <tibble [33 × 4]> <lm>  
10 Asia       1997 <tibble [33 × 4]> <lm>  
# ℹ 50 more rows
…
We can tidy the nested models, too.

fit_ols <- function(df) {
    lm(lifeExp ~ log(gdpPercap), data = df)
}

out_tidy <- gapminder |>
    group_by(continent, year) |>
    nest() |> 
    mutate(model = map(data, fit_ols),
           tidied = map(model, tidy)) 

out_tidy

# A tibble: 60 × 5
# Groups:   continent, year [60]
   continent  year data              model  tidied          
   <fct>     <int> <list>            <list> <list>          
 1 Asia       1952 <tibble [33 × 4]> <lm>   <tibble [2 × 5]>
 2 Asia       1957 <tibble [33 × 4]> <lm>   <tibble [2 × 5]>
 3 Asia       1962 <tibble [33 × 4]> <lm>   <tibble [2 × 5]>
 4 Asia       1967 <tibble [33 × 4]> <lm>   <tibble [2 × 5]>
 5 Asia       1972 <tibble [33 × 4]> <lm>   <tibble [2 × 5]>
 6 Asia       1977 <tibble [33 × 4]> <lm>   <tibble [2 × 5]>
 7 Asia       1982 <tibble [33 × 4]> <lm>   <tibble [2 × 5]>
 8 Asia       1987 <tibble [33 × 4]> <lm>   <tibble [2 × 5]>
 9 Asia       1992 <tibble [33 × 4]> <lm>   <tibble [2 × 5]>
10 Asia       1997 <tibble [33 × 4]> <lm>   <tibble [2 × 5]>
# ℹ 50 more rows

Grouped analysis and list columns

We can get the tidied results out into the main table if we like.

out_tidy <- out_tidy |>
    unnest(cols = c(tidied)) |>
    filter(term %nin% "(Intercept)" &
           continent %nin% "Oceania")

out_tidy

# A tibble: 48 × 9
# Groups:   continent, year [48]
   continent  year data     model  term     estimate std.error statistic p.value
   <fct>     <int> <list>   <list> <chr>       <dbl>     <dbl>     <dbl>   <dbl>
 1 Asia       1952 <tibble> <lm>   log(gdp…     4.16     1.25       3.33 2.28e-3
 2 Asia       1957 <tibble> <lm>   log(gdp…     4.17     1.28       3.26 2.71e-3
 3 Asia       1962 <tibble> <lm>   log(gdp…     4.59     1.24       3.72 7.94e-4
 4 Asia       1967 <tibble> <lm>   log(gdp…     4.50     1.15       3.90 4.77e-4
 5 Asia       1972 <tibble> <lm>   log(gdp…     4.44     1.01       4.41 1.16e-4
 6 Asia       1977 <tibble> <lm>   log(gdp…     4.87     1.03       4.75 4.42e-5
 7 Asia       1982 <tibble> <lm>   log(gdp…     4.78     0.852      5.61 3.77e-6
 8 Asia       1987 <tibble> <lm>   log(gdp…     5.17     0.727      7.12 5.31e-8
 9 Asia       1992 <tibble> <lm>   log(gdp…     5.09     0.649      7.84 7.60e-9
10 Asia       1997 <tibble> <lm>   log(gdp…     5.11     0.628      8.15 3.35e-9
# ℹ 38 more rows
…
# New model
fit_ols2 <- function(df) {
    lm(lifeExp ~ log(gdpPercap) + log(pop), data = df)
}

out_tidy <- gapminder |>
    group_by(continent, year) |>
    nest() |> 
    mutate(model = map(data, fit_ols2),
           tidied = map(model, tidy)) 

out_tidy

# A tibble: 60 × 5
# Groups:   continent, year [60]
   continent  year data              model  tidied          
   <fct>     <int> <list>            <list> <list>          
 1 Asia       1952 <tibble [33 × 4]> <lm>   <tibble [3 × 5]>
 2 Asia       1957 <tibble [33 × 4]> <lm>   <tibble [3 × 5]>
 3 Asia       1962 <tibble [33 × 4]> <lm>   <tibble [3 × 5]>
 4 Asia       1967 <tibble [33 × 4]> <lm>   <tibble [3 × 5]>
 5 Asia       1972 <tibble [33 × 4]> <lm>   <tibble [3 × 5]>
 6 Asia       1977 <tibble [33 × 4]> <lm>   <tibble [3 × 5]>
 7 Asia       1982 <tibble [33 × 4]> <lm>   <tibble [3 × 5]>
 8 Asia       1987 <tibble [33 × 4]> <lm>   <tibble [3 × 5]>
 9 Asia       1992 <tibble [33 × 4]> <lm>   <tibble [3 × 5]>
10 Asia       1997 <tibble [33 × 4]> <lm>   <tibble [3 × 5]>
# ℹ 50 more rows
…
Add it using map2() or pmap()

When we have two arguments to feed a function we can use map2(). The general case is pmap(), for passing any number of arguments in a list.

out_tidy <- gapminder |> group_by(continent, year) |> nest() |> 
    mutate(title = paste(continent, year),
           model = map(data, fit_ols2),
           tidied = map(model, tidy), 
           ggout = pmap(list(tidied, title), 
                        mod_plot)) 

out_tidy

# A tibble: 60 × 7
# Groups:   continent, year [60]
   continent  year data              title     model  tidied           ggout 
   <fct>     <int> <list>            <chr>     <list> <list>           <list>
 1 Asia       1952 <tibble [33 × 4]> Asia 1952 <lm>   <tibble [3 × 5]> <gg>  
 2 Asia       1957 <tibble [33 × 4]> Asia 1957 <lm>   <tibble [3 × 5]> <gg>  
 3 Asia       1962 <tibble [33 × 4]> Asia 1962 <lm>   <tibble [3 × 5]> <gg>  
 4 Asia       1967 <tibble [33 × 4]> Asia 1967 <lm>   <tibble [3 × 5]> <gg>  
 5 Asia       1972 <tibble [33 × 4]> Asia 1972 <lm>   <tibble [3 × 5]> <gg>  
 6 Asia       1977 <tibble [33 × 4]> Asia 1977 <lm>   <tibble [3 × 5]> <gg>  
 7 Asia       1982 <tibble [33 × 4]> Asia 1982 <lm>   <tibble [3 × 5]> <gg>  
 8 Asia       1987 <tibble [33 × 4]> Asia 1987 <lm>   <tibble [3 × 5]> <gg>  
 9 Asia       1992 <tibble [33 × 4]> Asia 1992 <lm>   <tibble [3 × 5]> <gg>  
10 Asia       1997 <tibble [33 × 4]> Asia 1997 <lm>   <tibble [3 × 5]> <gg>  
# ℹ 50 more rows
…
Present findings in substantive terms

Show degrees of confidence or uncertainty

Show the data when you can

But all this applies to data in any format. Graphs are not special here!

Plot Marginal Effects with the marginaleffects package

An example from the GSS

gss_sm

# A tibble: 2,867 × 32
    year    id ballot       age childs sibs   degree race  sex   region income16
   <dbl> <dbl> <labelled> <dbl>  <dbl> <labe> <fct>  <fct> <fct> <fct>  <fct>   
 1  2016     1 1             47      3 2      Bache… White Male  New E… $170000…
 2  2016     2 2             61      0 3      High … White Male  New E… $50000 …
 3  2016     3 3             72      2 3      Bache… White Male  New E… $75000 …
 4  2016     4 1             43      4 3      High … White Fema… New E… $170000…
 5  2016     5 3             55      2 2      Gradu… White Fema… New E… $170000…
 6  2016     6 2             53      2 2      Junio… White Fema… New E… $60000 …
 7  2016     7 1             50      2 2      High … White Male  New E… $170000…
 8  2016     8 3             23      3 6      High … Other Fema… Middl… $30000 …
 9  2016     9 1             45      3 5      High … Black Male  Middl… $60000 …
10  2016    10 3             71      4 1      Junio… White Male  Middl… $60000 …
# ℹ 2,857 more rows
# ℹ 21 more variables: relig <fct>, marital <fct>, padeg <fct>, madeg <fct>,
#   partyid <fct>, polviews <fct>, happy <fct>, partners <fct>, grass <fct>,
#   zodiac <fct>, pres12 <labelled>, wtssall <dbl>, income_rc <fct>,
#   agegrp <fct>, ageq <fct>, siblings <fct>, kids <fct>, religion <fct>,
#   bigregion <fct>, partners_rc <fct>, obama <dbl>
…
As always, our question is “What’s the smoothest way for me to get a tidy table of results I need to hand off to ggplot?”

For complex surveys, we use survey, the standard package for survey analysis in R, and srvyr, a helper package designed to integrate what survey can do with the Tiydverse framework.

## Load the packages
library(survey)
library(srvyr)

Example: The GSS again

This time, a small piece of the full GSS from the early 1970s to 2018.

gss_lon

# A tibble: 62,466 × 25
    year    id ballot age   degree race  sex   siblings kids  bigregion income16
   <dbl> <dbl> <labe> <lab> <fct>  <fct> <fct> <fct>    <fct> <fct>     <fct>   
 1  1972     1 NA     23    Bache… White Fema… 3        0     Midwest   <NA>    
 2  1972     2 NA     70    Lt Hi… White Male  4        4+    Midwest   <NA>    
 3  1972     3 NA     48    High … White Fema… 5        4+    Midwest   <NA>    
 4  1972     4 NA     27    Bache… White Fema… 5        0     Midwest   <NA>    
 5  1972     5 NA     61    High … White Fema… 2        2     Midwest   <NA>    
 6  1972     6 NA     26    High … White Male  1        0     Midwest   <NA>    
 7  1972     7 NA     28    High … White Male  6+       2     Midwest   <NA>    
 8  1972     8 NA     27    Bache… White Male  1        0     Midwest   <NA>    
 9  1972     9 NA     21    High … Black Fema… 2        2     South     <NA>    
10  1972    10 NA     30    High … Black Fema… 6+       4+    South     <NA>    
# ℹ 62,456 more rows
# ℹ 14 more variables: religion <fct>, marital <fct>, padeg <fct>, madeg <fct>,
#   partyid <fct>, polviews <fct>, happy <fct>, partners_rc <fct>, grass <fct>,
#   zodiac <fct>, pres12 <labelled>, wtssall <dbl>, vpsu <dbl>, vstrat <dbl>
…
Trends in the happy measure

out_hap <- gss_svy |> 
    group_by(year, happy)  |> 
    summarize(prop = survey_mean(na.rm = TRUE, vartype = "ci"))

out_hap

# A tibble: 111 × 5
# Groups:   year [28]
    year happy            prop prop_low prop_upp
   <dbl> <fct>           <dbl>    <dbl>    <dbl>
 1  1975 Very Happy    0.333   0.304     0.361  
 2  1975 Pretty Happy  0.534   0.504     0.565  
 3  1975 Not Too Happy 0.129   0.108     0.150  
 4  1975 <NA>          0.00375 0.000362  0.00714
 5  1976 Very Happy    0.348   0.321     0.376  
 6  1976 Pretty Happy  0.529   0.504     0.555  
 7  1976 Not Too Happy 0.122   0.104     0.141  
 8  1977 Very Happy    0.357   0.330     0.384  
 9  1977 Pretty Happy  0.532   0.504     0.560  
10  1977 Not Too Happy 0.110   0.0918    0.128  
# ℹ 101 more rows
…
A more complex example

gss_svy |>
  filter(year %in% seq(1976, 2016, by = 4)) |>
  group_by(year, race, degree) |>
  summarize(prop = survey_mean(na.rm = TRUE)) 

# A tibble: 162 × 5
# Groups:   year, race [30]
    year race  degree            prop prop_se
   <dbl> <fct> <fct>            <dbl>   <dbl>
 1  1976 White Lt High School 0.327   0.0160 
 2  1976 White High School    0.517   0.0161 
 3  1976 White Junior College 0.0128  0.00298
 4  1976 White Bachelor       0.101   0.00955
 5  1976 White Graduate       0.0392  0.00642
 6  1976 White <NA>           0.00285 0.00151
 7  1976 Black Lt High School 0.558   0.0603 
 8  1976 Black High School    0.335   0.0476 
 9  1976 Black Junior College 0.0423  0.0192 
10  1976 Black Bachelor       0.0577  0.0238 
# ℹ 152 more rows

Let’s put that in an object

out_yrd <- gss_svy |>
  filter(year %in% seq(1976, 2016, by = 4)) |>
  group_by(year, race, degree) |>
  summarize(prop = survey_mean(na.rm = TRUE)) 

Check the sums

out_yrd |> 
  group_by(year, race) |> 
  summarize(tot = sum(prop))

# A tibble: 30 × 3
# Groups:   year [10]
    year race    tot
   <dbl> <fct> <dbl>
 1  1976 White  1.00
 2  1976 Black  1.00
 3  1976 Other  1   
 4  1980 White  1.00
 5  1980 Black  1   
 6  1980 Other  1   
 7  1984 White  1.00
 8  1984 Black  1.00
 9  1984 Other  1   
10  1988 White  1.00
# ℹ 20 more rows
…
