Data Visualization with R and the Tidyverse – Data Visualization - 7. Make Maps (1)
…
us_states <- map_data("state")

dim(us_states)

[1] 15537     6

## Making it a tibble prevents crashes 
## in the slide rendering later on
us_states <- as_tibble(us_states)

us_states

# A tibble: 15,537 × 6
    long   lat group order region  subregion
   <dbl> <dbl> <dbl> <int> <chr>   <chr>    
 1 -87.5  30.4     1     1 alabama <NA>     
 2 -87.5  30.4     1     2 alabama <NA>     
 3 -87.5  30.4     1     3 alabama <NA>     
 4 -87.5  30.3     1     4 alabama <NA>     
 5 -87.6  30.3     1     5 alabama <NA>     
 6 -87.6  30.3     1     6 alabama <NA>     
 7 -87.6  30.3     1     7 alabama <NA>     
 8 -87.6  30.3     1     8 alabama <NA>     
 9 -87.7  30.3     1     9 alabama <NA>     
10 -87.8  30.3     1    10 alabama <NA>     
# ℹ 15,527 more rows

What is this, at root?

us_states

# A tibble: 15,537 × 6
    long   lat group order region  subregion
   <dbl> <dbl> <dbl> <int> <chr>   <chr>    
 1 -87.5  30.4     1     1 alabama <NA>     
 2 -87.5  30.4     1     2 alabama <NA>     
 3 -87.5  30.4     1     3 alabama <NA>     
 4 -87.5  30.3     1     4 alabama <NA>     
 5 -87.6  30.3     1     5 alabama <NA>     
 6 -87.6  30.3     1     6 alabama <NA>     
 7 -87.6  30.3     1     7 alabama <NA>     
 8 -87.6  30.3     1     8 alabama <NA>     
 9 -87.7  30.3     1     9 alabama <NA>     
10 -87.8  30.3     1    10 alabama <NA>     
# ℹ 15,527 more rows
…
For now, we’ll do it the direct way

To make explicit what’s happening, and to emphasize how it’s all just points and lines made from tables we’ll first do it at the level of the ggplot grammar with a geom that just draws shapes, geom_polygon(). After that, we’ll introduce a new package, sf and a new geom, geom_sf() that will handle this for us, and more.

Fix the projection

us_states <- as_tibble(map_data("state"))

Fix the projection

us_states <- as_tibble(map_data("state"))

us_states

# A tibble: 15,537 × 6
    long   lat group order region  subregion
   <dbl> <dbl> <dbl> <int> <chr>   <chr>    
 1 -87.5  30.4     1     1 alabama <NA>     
 2 -87.5  30.4     1     2 alabama <NA>     
 3 -87.5  30.4     1     3 alabama <NA>     
 4 -87.5  30.3     1     4 alabama <NA>     
 5 -87.6  30.3     1     5 alabama <NA>     
 6 -87.6  30.3     1     6 alabama <NA>     
 7 -87.6  30.3     1     7 alabama <NA>     
 8 -87.6  30.3     1     8 alabama <NA>     
 9 -87.7  30.3     1     9 alabama <NA>     
10 -87.8  30.3     1    10 alabama <NA>     
# ℹ 15,527 more rows
…
Our U.S. Map again, now transformed

Next, some data

We can merge our state-level election data with the us_states table, but we need to do a little work.

us_states

# A tibble: 15,537 × 6
    long   lat group order region  subregion
   <dbl> <dbl> <dbl> <int> <chr>   <chr>    
 1 -87.5  30.4     1     1 alabama <NA>     
 2 -87.5  30.4     1     2 alabama <NA>     
 3 -87.5  30.4     1     3 alabama <NA>     
 4 -87.5  30.3     1     4 alabama <NA>     
 5 -87.6  30.3     1     5 alabama <NA>     
 6 -87.6  30.3     1     6 alabama <NA>     
 7 -87.6  30.3     1     7 alabama <NA>     
 8 -87.6  30.3     1     8 alabama <NA>     
 9 -87.7  30.3     1     9 alabama <NA>     
10 -87.8  30.3     1    10 alabama <NA>     
# ℹ 15,527 more rows

election

# A tibble: 51 × 22
   state     st     fips total_vote vote_margin winner party pct_margin r_points
   <chr>     <chr> <dbl>      <dbl>       <dbl> <chr>  <chr>      <dbl>    <dbl>
 1 Alabama   AL        1    2123372      588708 Trump  Repu…     0.277     27.7 
 2 Alaska    AK        2     318608       46933 Trump  Repu…     0.147     14.7 
 3 Arizona   AZ        4    2604657       91234 Trump  Repu…     0.035      3.5 
 4 Arkansas  AR        5    1130635      304378 Trump  Repu…     0.269     26.9 
 5 Californ… CA        6   14237893     4269978 Clint… Demo…     0.300    -30.0 
 6 Colorado  CO        8    2780247      136386 Clint… Demo…     0.0491    -4.91
 7 Connecti… CT        9    1644920      224357 Clint… Demo…     0.136    -13.6 
 8 Delaware  DE       10     443814       50476 Clint… Demo…     0.114    -11.4 
 9 District… DC       11     311268      270107 Clint… Demo…     0.868    -86.8 
10 Florida   FL       12    9502747      112911 Trump  Repu…     0.0119     1.19
# ℹ 41 more rows
# ℹ 13 more variables: d_points <dbl>, pct_clinton <dbl>, pct_trump <dbl>,
#   pct_johnson <dbl>, pct_other <dbl>, clinton_vote <dbl>, trump_vote <dbl>,
#   johnson_vote <dbl>, other_vote <dbl>, ev_dem <dbl>, ev_rep <dbl>,
#   ev_oth <dbl>, census <chr>

To merge, or join these tables, they need to have a column in common to act as a key.

Recode to make a key

election <- election |>
  mutate(region = tolower(state)) |> 
  relocate(region)

election

# A tibble: 51 × 23
   region       state st     fips total_vote vote_margin winner party pct_margin
   <chr>        <chr> <chr> <dbl>      <dbl>       <dbl> <chr>  <chr>      <dbl>
 1 alabama      Alab… AL        1    2123372      588708 Trump  Repu…     0.277 
 2 alaska       Alas… AK        2     318608       46933 Trump  Repu…     0.147 
 3 arizona      Ariz… AZ        4    2604657       91234 Trump  Repu…     0.035 
 4 arkansas     Arka… AR        5    1130635      304378 Trump  Repu…     0.269 
 5 california   Cali… CA        6   14237893     4269978 Clint… Demo…     0.300 
 6 colorado     Colo… CO        8    2780247      136386 Clint… Demo…     0.0491
 7 connecticut  Conn… CT        9    1644920      224357 Clint… Demo…     0.136 
 8 delaware     Dela… DE       10     443814       50476 Clint… Demo…     0.114 
 9 district of… Dist… DC       11     311268      270107 Clint… Demo…     0.868 
10 florida      Flor… FL       12    9502747      112911 Trump  Repu…     0.0119
# ℹ 41 more rows
# ℹ 14 more variables: r_points <dbl>, d_points <dbl>, pct_clinton <dbl>,
#   pct_trump <dbl>, pct_johnson <dbl>, pct_other <dbl>, clinton_vote <dbl>,
#   trump_vote <dbl>, johnson_vote <dbl>, other_vote <dbl>, ev_dem <dbl>,
#   ev_rep <dbl>, ev_oth <dbl>, census <chr>

Now we can join them

us_states

# A tibble: 15,537 × 6
    long   lat group order region  subregion
   <dbl> <dbl> <dbl> <int> <chr>   <chr>    
 1 -87.5  30.4     1     1 alabama <NA>     
 2 -87.5  30.4     1     2 alabama <NA>     
 3 -87.5  30.4     1     3 alabama <NA>     
 4 -87.5  30.3     1     4 alabama <NA>     
 5 -87.6  30.3     1     5 alabama <NA>     
 6 -87.6  30.3     1     6 alabama <NA>     
 7 -87.6  30.3     1     7 alabama <NA>     
 8 -87.6  30.3     1     8 alabama <NA>     
 9 -87.7  30.3     1     9 alabama <NA>     
10 -87.8  30.3     1    10 alabama <NA>     
# ℹ 15,527 more rows

election

# A tibble: 51 × 23
   region       state st     fips total_vote vote_margin winner party pct_margin
   <chr>        <chr> <chr> <dbl>      <dbl>       <dbl> <chr>  <chr>      <dbl>
 1 alabama      Alab… AL        1    2123372      588708 Trump  Repu…     0.277 
 2 alaska       Alas… AK        2     318608       46933 Trump  Repu…     0.147 
 3 arizona      Ariz… AZ        4    2604657       91234 Trump  Repu…     0.035 
 4 arkansas     Arka… AR        5    1130635      304378 Trump  Repu…     0.269 
 5 california   Cali… CA        6   14237893     4269978 Clint… Demo…     0.300 
 6 colorado     Colo… CO        8    2780247      136386 Clint… Demo…     0.0491
 7 connecticut  Conn… CT        9    1644920      224357 Clint… Demo…     0.136 
 8 delaware     Dela… DE       10     443814       50476 Clint… Demo…     0.114 
 9 district of… Dist… DC       11     311268      270107 Clint… Demo…     0.868 
10 florida      Flor… FL       12    9502747      112911 Trump  Repu…     0.0119
# ℹ 41 more rows
# ℹ 14 more variables: r_points <dbl>, d_points <dbl>, pct_clinton <dbl>,
#   pct_trump <dbl>, pct_johnson <dbl>, pct_other <dbl>, clinton_vote <dbl>,
#   trump_vote <dbl>, johnson_vote <dbl>, other_vote <dbl>, ev_dem <dbl>,
#   ev_rep <dbl>, ev_oth <dbl>, census <chr>

This is a left join

us_states_elec <- left_join(us_states, election, by = "region")

us_states_elec

# A tibble: 15,537 × 28
    long   lat group order region  subregion state   st     fips total_vote
   <dbl> <dbl> <dbl> <int> <chr>   <chr>     <chr>   <chr> <dbl>      <dbl>
 1 -87.5  30.4     1     1 alabama <NA>      Alabama AL        1    2123372
 2 -87.5  30.4     1     2 alabama <NA>      Alabama AL        1    2123372
 3 -87.5  30.4     1     3 alabama <NA>      Alabama AL        1    2123372
 4 -87.5  30.3     1     4 alabama <NA>      Alabama AL        1    2123372
 5 -87.6  30.3     1     5 alabama <NA>      Alabama AL        1    2123372
 6 -87.6  30.3     1     6 alabama <NA>      Alabama AL        1    2123372
 7 -87.6  30.3     1     7 alabama <NA>      Alabama AL        1    2123372
 8 -87.6  30.3     1     8 alabama <NA>      Alabama AL        1    2123372
 9 -87.7  30.3     1     9 alabama <NA>      Alabama AL        1    2123372
10 -87.8  30.3     1    10 alabama <NA>      Alabama AL        1    2123372
# ℹ 15,527 more rows
# ℹ 18 more variables: vote_margin <dbl>, winner <chr>, party <chr>,
#   pct_margin <dbl>, r_points <dbl>, d_points <dbl>, pct_clinton <dbl>,
#   pct_trump <dbl>, pct_johnson <dbl>, pct_other <dbl>, clinton_vote <dbl>,
#   trump_vote <dbl>, johnson_vote <dbl>, other_vote <dbl>, ev_dem <dbl>,
#   ev_rep <dbl>, ev_oth <dbl>, census <chr>
…
America’s
Ur-Choropleths

County-level choropleths

Conceptually identical to state ones. The tables are just bigger, because there are way more lines to draw.

county_map <- as_tibble(county_map)
county_map

# A tibble: 191,382 × 7
       long       lat order hole  piece group            id   
      <dbl>     <dbl> <int> <lgl> <fct> <fct>            <chr>
 1 1225889. -1275020.     1 FALSE 1     0500000US01001.1 01001
 2 1235324. -1274008.     2 FALSE 1     0500000US01001.1 01001
 3 1244873. -1272331.     3 FALSE 1     0500000US01001.1 01001
 4 1244129. -1267515.     4 FALSE 1     0500000US01001.1 01001
 5 1272010. -1262889.     5 FALSE 1     0500000US01001.1 01001
 6 1276797. -1295514.     6 FALSE 1     0500000US01001.1 01001
 7 1273832. -1297124.     7 FALSE 1     0500000US01001.1 01001
 8 1272727. -1296631.     8 FALSE 1     0500000US01001.1 01001
 9 1272513. -1299771.     9 FALSE 1     0500000US01001.1 01001
10 1269950. -1302038.    10 FALSE 1     0500000US01001.1 01001
# ℹ 191,372 more rows

191,000 or so rows

id here is the county FIPS code.

County-level choropleths

county_data <- as_tibble(county_data)
county_data

# A tibble: 3,195 × 32
   id    name  state census_region pop_dens pop_dens4 pop_dens6 pct_black    pop
   <chr> <chr> <fct> <fct>         <fct>    <fct>     <fct>     <fct>      <int>
 1 0     <NA>  <NA>  <NA>          [   50,… [ 45,  1… [ 82,  2… [10.0,15… 3.19e8
 2 01000 1     AL    South         [   50,… [ 45,  1… [ 82,  2… [25.0,50… 4.85e6
 3 01001 Auta… AL    South         [   50,… [ 45,  1… [ 82,  2… [15.0,25… 5.54e4
 4 01003 Bald… AL    South         [  100,… [118,716… [ 82,  2… [ 5.0,10… 2.00e5
 5 01005 Barb… AL    South         [   10,… [ 17,   … [ 25,   … [25.0,50… 2.69e4
 6 01007 Bibb… AL    South         [   10,… [ 17,   … [ 25,   … [15.0,25… 2.25e4
 7 01009 Blou… AL    South         [   50,… [ 45,  1… [ 82,  2… [ 0.0, 2… 5.77e4
 8 01011 Bull… AL    South         [   10,… [ 17,   … [  9,   … [50.0,85… 1.08e4
 9 01013 Butl… AL    South         [   10,… [ 17,   … [ 25,   … [25.0,50… 2.03e4
10 01015 Calh… AL    South         [  100,… [118,716… [ 82,  2… [15.0,25… 1.16e5
# ℹ 3,185 more rows
# ℹ 23 more variables: female <dbl>, white <dbl>, black <dbl>,
#   travel_time <dbl>, land_area <dbl>, hh_income <int>, su_gun4 <fct>,
#   su_gun6 <fct>, fips <dbl>, votes_dem_2016 <int>, votes_gop_2016 <int>,
#   total_votes_2016 <int>, per_dem_2016 <dbl>, per_gop_2016 <dbl>,
#   diff_2016 <int>, per_dem_2012 <dbl>, per_gop_2012 <dbl>, diff_2012 <int>,
#   winner <chr>, partywinner16 <chr>, winner12 <chr>, partywinner12 <chr>, …
…
Joined table

county_full <- as_tibble(left_join(county_map, county_data, by = "id"))

county_full

# A tibble: 191,382 × 38
       long       lat order hole  piece group    id    name  state census_region
      <dbl>     <dbl> <int> <lgl> <fct> <fct>    <chr> <chr> <fct> <fct>        
 1 1225889. -1275020.     1 FALSE 1     0500000… 01001 Auta… AL    South        
 2 1235324. -1274008.     2 FALSE 1     0500000… 01001 Auta… AL    South        
 3 1244873. -1272331.     3 FALSE 1     0500000… 01001 Auta… AL    South        
 4 1244129. -1267515.     4 FALSE 1     0500000… 01001 Auta… AL    South        
 5 1272010. -1262889.     5 FALSE 1     0500000… 01001 Auta… AL    South        
 6 1276797. -1295514.     6 FALSE 1     0500000… 01001 Auta… AL    South        
 7 1273832. -1297124.     7 FALSE 1     0500000… 01001 Auta… AL    South        
 8 1272727. -1296631.     8 FALSE 1     0500000… 01001 Auta… AL    South        
 9 1272513. -1299771.     9 FALSE 1     0500000… 01001 Auta… AL    South        
10 1269950. -1302038.    10 FALSE 1     0500000… 01001 Auta… AL    South        
# ℹ 191,372 more rows
# ℹ 28 more variables: pop_dens <fct>, pop_dens4 <fct>, pop_dens6 <fct>,
#   pct_black <fct>, pop <int>, female <dbl>, white <dbl>, black <dbl>,
#   travel_time <dbl>, land_area <dbl>, hh_income <int>, su_gun4 <fct>,
#   su_gun6 <fct>, fips <dbl>, votes_dem_2016 <int>, votes_gop_2016 <int>,
#   total_votes_2016 <int>, per_dem_2016 <dbl>, per_gop_2016 <dbl>,
#   diff_2016 <int>, per_dem_2012 <dbl>, per_gop_2012 <dbl>, diff_2012 <int>, …

County Population Density

county_full <- as_tibble(left_join(county_map, county_data, by = "id"))

County Population Density

county_full <- as_tibble(left_join(county_map, county_data, by = "id"))

county_full

# A tibble: 191,382 × 38
       long       lat order hole  piece group    id    name  state census_region
      <dbl>     <dbl> <int> <lgl> <fct> <fct>    <chr> <chr> <fct> <fct>        
 1 1225889. -1275020.     1 FALSE 1     0500000… 01001 Auta… AL    South        
 2 1235324. -1274008.     2 FALSE 1     0500000… 01001 Auta… AL    South        
 3 1244873. -1272331.     3 FALSE 1     0500000… 01001 Auta… AL    South        
 4 1244129. -1267515.     4 FALSE 1     0500000… 01001 Auta… AL    South        
 5 1272010. -1262889.     5 FALSE 1     0500000… 01001 Auta… AL    South        
 6 1276797. -1295514.     6 FALSE 1     0500000… 01001 Auta… AL    South        
 7 1273832. -1297124.     7 FALSE 1     0500000… 01001 Auta… AL    South        
 8 1272727. -1296631.     8 FALSE 1     0500000… 01001 Auta… AL    South        
 9 1272513. -1299771.     9 FALSE 1     0500000… 01001 Auta… AL    South        
10 1269950. -1302038.    10 FALSE 1     0500000… 01001 Auta… AL    South        
# ℹ 191,372 more rows
# ℹ 28 more variables: pop_dens <fct>, pop_dens4 <fct>, pop_dens6 <fct>,
#   pct_black <fct>, pop <int>, female <dbl>, white <dbl>, black <dbl>,
#   travel_time <dbl>, land_area <dbl>, hh_income <int>, su_gun4 <fct>,
#   su_gun6 <fct>, fips <dbl>, votes_dem_2016 <int>, votes_gop_2016 <int>,
#   total_votes_2016 <int>, per_dem_2016 <dbl>, per_gop_2016 <dbl>,
#   diff_2016 <int>, per_dem_2012 <dbl>, per_gop_2012 <dbl>, diff_2012 <int>, …
…
Same again for Percent Black

county_full <- as_tibble(left_join(county_map, county_data, by = "id"))

Same again for Percent Black

county_full <- as_tibble(left_join(county_map, county_data, by = "id"))

county_full

# A tibble: 191,382 × 38
       long       lat order hole  piece group    id    name  state census_region
      <dbl>     <dbl> <int> <lgl> <fct> <fct>    <chr> <chr> <fct> <fct>        
 1 1225889. -1275020.     1 FALSE 1     0500000… 01001 Auta… AL    South        
 2 1235324. -1274008.     2 FALSE 1     0500000… 01001 Auta… AL    South        
 3 1244873. -1272331.     3 FALSE 1     0500000… 01001 Auta… AL    South        
 4 1244129. -1267515.     4 FALSE 1     0500000… 01001 Auta… AL    South        
 5 1272010. -1262889.     5 FALSE 1     0500000… 01001 Auta… AL    South        
 6 1276797. -1295514.     6 FALSE 1     0500000… 01001 Auta… AL    South        
 7 1273832. -1297124.     7 FALSE 1     0500000… 01001 Auta… AL    South        
 8 1272727. -1296631.     8 FALSE 1     0500000… 01001 Auta… AL    South        
 9 1272513. -1299771.     9 FALSE 1     0500000… 01001 Auta… AL    South        
10 1269950. -1302038.    10 FALSE 1     0500000… 01001 Auta… AL    South        
# ℹ 191,372 more rows
# ℹ 28 more variables: pop_dens <fct>, pop_dens4 <fct>, pop_dens6 <fct>,
#   pct_black <fct>, pop <int>, female <dbl>, white <dbl>, black <dbl>,
#   travel_time <dbl>, land_area <dbl>, hh_income <int>, su_gun4 <fct>,
#   su_gun6 <fct>, fips <dbl>, votes_dem_2016 <int>, votes_gop_2016 <int>,
#   total_votes_2016 <int>, per_dem_2016 <dbl>, per_gop_2016 <dbl>,
#   diff_2016 <int>, per_dem_2012 <dbl>, per_gop_2012 <dbl>, diff_2012 <int>, …
…
Small multiples for maps

Opiate-related Mortality, 1999-2014

opiates

# A tibble: 800 × 11
    year state    fips deaths population crude adjusted adjusted_se region abbr 
   <int> <chr>   <int>  <int>      <int> <dbl>    <dbl>       <dbl> <ord>  <chr>
 1  1999 Alabama     1     37    4430141   0.8      0.8         0.1 South  AL   
 2  1999 Alaska      2     27     624779   4.3      4           0.8 West   AK   
 3  1999 Arizona     4    229    5023823   4.6      4.7         0.3 West   AZ   
 4  1999 Arkans…     5     28    2651860   1.1      1.1         0.2 South  AR   
 5  1999 Califo…     6   1474   33499204   4.4      4.5         0.1 West   CA   
 6  1999 Colora…     8    164    4226018   3.9      3.7         0.3 West   CO   
 7  1999 Connec…     9    151    3386401   4.5      4.4         0.4 North… CT   
 8  1999 Delawa…    10     32     774990   4.1      4.1         0.7 South  DE   
 9  1999 Distri…    11     28     570213   4.9      4.9         0.9 South  DC   
10  1999 Florida    12    402   15759421   2.6      2.6         0.1 South  FL   
# ℹ 790 more rows
# ℹ 1 more variable: division_name <chr>
…
Is your data
 really spatial?

The two leading states in each region in 2014

## Put this in an object called `st_top`
opiates

# A tibble: 800 × 11
    year state    fips deaths population crude adjusted adjusted_se region abbr 
   <int> <chr>   <int>  <int>      <int> <dbl>    <dbl>       <dbl> <ord>  <chr>
 1  1999 alabama     1     37    4430141   0.8      0.8         0.1 South  AL   
 2  1999 alaska      2     27     624779   4.3      4           0.8 West   AK   
 3  1999 arizona     4    229    5023823   4.6      4.7         0.3 West   AZ   
 4  1999 arkans…     5     28    2651860   1.1      1.1         0.2 South  AR   
 5  1999 califo…     6   1474   33499204   4.4      4.5         0.1 West   CA   
 6  1999 colora…     8    164    4226018   3.9      3.7         0.3 West   CO   
 7  1999 connec…     9    151    3386401   4.5      4.4         0.4 North… CT   
 8  1999 delawa…    10     32     774990   4.1      4.1         0.7 South  DE   
 9  1999 distri…    11     28     570213   4.9      4.9         0.9 South  DC   
10  1999 florida    12    402   15759421   2.6      2.6         0.1 South  FL   
# ℹ 790 more rows
# ℹ 1 more variable: division_name <chr>
…
