Data Visualization with R and the Tidyverse – Data Visualization - 7. Make Maps (2)
…
When we load sf it creates a way to use several standard GIS concepts and tools, such as the GEOS library for computational geometry, the PROJ software that transforms spatial coordinates from one reference system to another, as in map projections, and the Simple Features standard for specifying the elements of spatial attributes.

library(sf)

Linking to GEOS 3.11.0, GDAL 3.5.3, PROJ 9.1.0; sf_use_s2() is TRUE

Let’s see the main upshot for us.

The nycdogs package

library(nycdogs)
nyc_license

# A tibble: 493,072 × 9
   animal_name animal_gender animal_birth_year breed_rc         borough zip_code
   <chr>       <chr>                     <dbl> <chr>            <chr>      <int>
 1 Paige       F                          2014 Pit Bull (or Mi… Manhat…    10035
 2 Yogi        M                          2010 Boxer            Bronx      10465
 3 Ali         M                          2014 Basenji          Manhat…    10013
 4 Queen       F                          2013 Akita Crossbreed Manhat…    10013
 5 Lola        F                          2009 Maltese          Manhat…    10028
 6 Ian         M                          2006 Unknown          Manhat…    10013
 7 Buddy       M                          2008 Unknown          Manhat…    10025
 8 Chewbacca   F                          2012 Labrador (or Cr… Manhat…    10013
 9 Heidi-Bo    F                          2007 Dachshund Smoot… Brookl…    11215
10 Massimo     M                          2009 Bull Dog, French Brookl…    11201
# ℹ 493,062 more rows
# ℹ 3 more variables: license_issued_date <date>, license_expired_date <date>,
#   extract_year <dbl>
…
The nycdogs package

The metadata tells you this is not a regular tibble.

nyc_zips

Simple feature collection with 262 features and 11 fields
Geometry type: POLYGON
Dimension:     XY
Bounding box:  xmin: -74.25576 ymin: 40.49584 xmax: -73.6996 ymax: 40.91517
Geodetic CRS:  WGS 84
# A tibble: 262 × 12
   objectid zip_code po_name     state borough st_fips cty_fips bld_gpostal_code
      <int>    <int> <chr>       <chr> <chr>   <chr>   <chr>               <int>
 1        1    11372 Jackson He… NY    Queens  36      081                     0
 2        2    11004 Glen Oaks   NY    Queens  36      081                     0
 3        3    11040 New Hyde P… NY    Queens  36      081                     0
 4        4    11426 Bellerose   NY    Queens  36      081                     0
 5        5    11365 Fresh Mead… NY    Queens  36      081                     0
 6        6    11373 Elmhurst    NY    Queens  36      081                     0
 7        7    11001 Floral Park NY    Queens  36      081                     0
 8        8    11375 Forest Hil… NY    Queens  36      081                     0
 9        9    11427 Queens Vil… NY    Queens  36      081                     0
10       10    11374 Rego Park   NY    Queens  36      081                     0
# ℹ 252 more rows
# ℹ 4 more variables: shape_leng <dbl>, shape_area <dbl>, x_id <chr>,
#   geometry <POLYGON [°]>

The nycdogs package

nyc_zips |> 
  select(objectid:borough)

Simple feature collection with 262 features and 5 fields
Geometry type: POLYGON
Dimension:     XY
Bounding box:  xmin: -74.25576 ymin: 40.49584 xmax: -73.6996 ymax: 40.91517
Geodetic CRS:  WGS 84
# A tibble: 262 × 6
   objectid zip_code po_name         state borough                      geometry
      <int>    <int> <chr>           <chr> <chr>                   <POLYGON [°]>
 1        1    11372 Jackson Heights NY    Queens  ((-73.86942 40.74916, -73.89…
 2        2    11004 Glen Oaks       NY    Queens  ((-73.71068 40.75004, -73.70…
 3        3    11040 New Hyde Park   NY    Queens  ((-73.70098 40.7389, -73.703…
 4        4    11426 Bellerose       NY    Queens  ((-73.7227 40.75373, -73.722…
 5        5    11365 Fresh Meadows   NY    Queens  ((-73.81089 40.72717, -73.81…
 6        6    11373 Elmhurst        NY    Queens  ((-73.88722 40.72753, -73.88…
 7        7    11001 Floral Park     NY    Queens  ((-73.70098 40.7389, -73.699…
 8        8    11375 Forest Hills    NY    Queens  ((-73.85625 40.73672, -73.85…
 9        9    11427 Queens Village  NY    Queens  ((-73.74169 40.73682, -73.73…
10       10    11374 Rego Park       NY    Queens  ((-73.86451 40.73407, -73.85…
# ℹ 252 more rows

The polygon column is a list of lat/lon points that, when joined, draw the outline of the zip code area. This is much more compact than a big table where every row is a single point.

Let’s make a summary table

nyc_license

# A tibble: 493,072 × 9
   animal_name animal_gender animal_birth_year breed_rc         borough zip_code
   <chr>       <chr>                     <dbl> <chr>            <chr>      <int>
 1 Paige       F                          2014 Pit Bull (or Mi… Manhat…    10035
 2 Yogi        M                          2010 Boxer            Bronx      10465
 3 Ali         M                          2014 Basenji          Manhat…    10013
 4 Queen       F                          2013 Akita Crossbreed Manhat…    10013
 5 Lola        F                          2009 Maltese          Manhat…    10028
 6 Ian         M                          2006 Unknown          Manhat…    10013
 7 Buddy       M                          2008 Unknown          Manhat…    10025
 8 Chewbacca   F                          2012 Labrador (or Cr… Manhat…    10013
 9 Heidi-Bo    F                          2007 Dachshund Smoot… Brookl…    11215
10 Massimo     M                          2009 Bull Dog, French Brookl…    11201
# ℹ 493,062 more rows
# ℹ 3 more variables: license_issued_date <date>, license_expired_date <date>,
#   extract_year <dbl>

Let’s make a summary table

nyc_license  |>
  filter(extract_year == 2018)

# A tibble: 117,371 × 9
   animal_name animal_gender animal_birth_year breed_rc         borough zip_code
   <chr>       <chr>                     <dbl> <chr>            <chr>      <int>
 1 Ali         M                          2014 Basenji          Manhat…    10013
 2 Ian         M                          2006 Unknown          Manhat…    10013
 3 Chewbacca   F                          2012 Labrador (or Cr… Manhat…    10013
 4 Lola        F                          2006 Miniature Pinsc… Manhat…    10022
 5 Lucy        F                          2014 Dachshund Smoot… Brookl…    11215
 6 June        F                          2010 Cavalier King C… Brookl…    11238
 7 Apple       M                          2013 Havanese         Manhat…    10025
 8 Muneca      F                          2013 Beagle           Brookl…    11232
 9 Benson      M                          2010 Boxer            Brookl…    11209
10 Bigs        M                          2004 Pit Bull (or Mi… Brookl…    11208
# ℹ 117,361 more rows
# ℹ 3 more variables: license_issued_date <date>, license_expired_date <date>,
#   extract_year <dbl>

Let’s make a summary table

nyc_license  |>
  filter(extract_year == 2018) |>
  group_by(breed_rc, zip_code)

# A tibble: 117,371 × 9
# Groups:   breed_rc, zip_code [18,945]
   animal_name animal_gender animal_birth_year breed_rc         borough zip_code
   <chr>       <chr>                     <dbl> <chr>            <chr>      <int>
 1 Ali         M                          2014 Basenji          Manhat…    10013
 2 Ian         M                          2006 Unknown          Manhat…    10013
 3 Chewbacca   F                          2012 Labrador (or Cr… Manhat…    10013
 4 Lola        F                          2006 Miniature Pinsc… Manhat…    10022
 5 Lucy        F                          2014 Dachshund Smoot… Brookl…    11215
 6 June        F                          2010 Cavalier King C… Brookl…    11238
 7 Apple       M                          2013 Havanese         Manhat…    10025
 8 Muneca      F                          2013 Beagle           Brookl…    11232
 9 Benson      M                          2010 Boxer            Brookl…    11209
10 Bigs        M                          2004 Pit Bull (or Mi… Brookl…    11208
# ℹ 117,361 more rows
# ℹ 3 more variables: license_issued_date <date>, license_expired_date <date>,
#   extract_year <dbl>

Let’s make a summary table

nyc_license  |>
  filter(extract_year == 2018) |>
  group_by(breed_rc, zip_code) |>
  tally()

# A tibble: 18,945 × 3
# Groups:   breed_rc [311]
   breed_rc      zip_code     n
   <chr>            <int> <int>
 1 Affenpinscher    10005     1
 2 Affenpinscher    10011     1
 3 Affenpinscher    10013     1
 4 Affenpinscher    10014     1
 5 Affenpinscher    10016     1
 6 Affenpinscher    10017     1
 7 Affenpinscher    10018     1
 8 Affenpinscher    10019     1
 9 Affenpinscher    10021     1
10 Affenpinscher    10023     1
# ℹ 18,935 more rows

Let’s make a summary table

nyc_license  |>
  filter(extract_year == 2018) |>
  group_by(breed_rc, zip_code) |>
  tally() |>
  mutate(freq = n / sum(n))

# A tibble: 18,945 × 4
# Groups:   breed_rc [311]
   breed_rc      zip_code     n   freq
   <chr>            <int> <int>  <dbl>
 1 Affenpinscher    10005     1 0.0303
 2 Affenpinscher    10011     1 0.0303
 3 Affenpinscher    10013     1 0.0303
 4 Affenpinscher    10014     1 0.0303
 5 Affenpinscher    10016     1 0.0303
 6 Affenpinscher    10017     1 0.0303
 7 Affenpinscher    10018     1 0.0303
 8 Affenpinscher    10019     1 0.0303
 9 Affenpinscher    10021     1 0.0303
10 Affenpinscher    10023     1 0.0303
# ℹ 18,935 more rows

Let’s make a summary table

nyc_license  |>
  filter(extract_year == 2018) |>
  group_by(breed_rc, zip_code) |>
  tally() |>
  mutate(freq = n / sum(n)) |>
  filter(breed_rc == "French Bulldog")

# A tibble: 161 × 4
# Groups:   breed_rc [1]
   breed_rc       zip_code     n    freq
   <chr>             <int> <int>   <dbl>
 1 French Bulldog    10001    27 0.0167 
 2 French Bulldog    10002    20 0.0123 
 3 French Bulldog    10003    36 0.0222 
 4 French Bulldog    10004     9 0.00555
 5 French Bulldog    10005    15 0.00925
 6 French Bulldog    10006     8 0.00494
 7 French Bulldog    10007    17 0.0105 
 8 French Bulldog    10009    51 0.0315 
 9 French Bulldog    10010    31 0.0191 
10 French Bulldog    10011    88 0.0543 
# ℹ 151 more rows
…
Now we have two tables again

nyc_zips |> select(objectid:st_fips)

Simple feature collection with 262 features and 6 fields
Geometry type: POLYGON
Dimension:     XY
Bounding box:  xmin: -74.25576 ymin: 40.49584 xmax: -73.6996 ymax: 40.91517
Geodetic CRS:  WGS 84
# A tibble: 262 × 7
   objectid zip_code po_name     state borough st_fips                  geometry
      <int>    <int> <chr>       <chr> <chr>   <chr>               <POLYGON [°]>
 1        1    11372 Jackson He… NY    Queens  36      ((-73.86942 40.74916, -7…
 2        2    11004 Glen Oaks   NY    Queens  36      ((-73.71068 40.75004, -7…
 3        3    11040 New Hyde P… NY    Queens  36      ((-73.70098 40.7389, -73…
 4        4    11426 Bellerose   NY    Queens  36      ((-73.7227 40.75373, -73…
 5        5    11365 Fresh Mead… NY    Queens  36      ((-73.81089 40.72717, -7…
 6        6    11373 Elmhurst    NY    Queens  36      ((-73.88722 40.72753, -7…
 7        7    11001 Floral Park NY    Queens  36      ((-73.70098 40.7389, -73…
 8        8    11375 Forest Hil… NY    Queens  36      ((-73.85625 40.73672, -7…
 9        9    11427 Queens Vil… NY    Queens  36      ((-73.74169 40.73682, -7…
10       10    11374 Rego Park   NY    Queens  36      ((-73.86451 40.73407, -7…
# ℹ 252 more rows

nyc_fb |> select(breed_rc:n)

# A tibble: 161 × 3
# Groups:   breed_rc [1]
   breed_rc       zip_code     n
   <chr>             <int> <int>
 1 French Bulldog    10001    27
 2 French Bulldog    10002    20
 3 French Bulldog    10003    36
 4 French Bulldog    10004     9
 5 French Bulldog    10005    15
 6 French Bulldog    10006     8
 7 French Bulldog    10007    17
 8 French Bulldog    10009    51
 9 French Bulldog    10010    31
10 French Bulldog    10011    88
# ℹ 151 more rows

Join them:

fb_map <- left_join(nyc_zips, nyc_fb, by = "zip_code")

Ready to map

fb_map |> select(zip_code, po_name, borough, breed_rc:freq, geometry)

Simple feature collection with 262 features and 6 fields
Geometry type: POLYGON
Dimension:     XY
Bounding box:  xmin: -74.25576 ymin: 40.49584 xmax: -73.6996 ymax: 40.91517
Geodetic CRS:  WGS 84
# A tibble: 262 × 7
   zip_code po_name    borough breed_rc     n     freq                  geometry
      <int> <chr>      <chr>   <chr>    <int>    <dbl>             <POLYGON [°]>
 1    11372 Jackson H… Queens  French …    13  8.02e-3 ((-73.86942 40.74916, -7…
 2    11004 Glen Oaks  Queens  French …     1  6.17e-4 ((-73.71068 40.75004, -7…
 3    11040 New Hyde … Queens  <NA>        NA NA       ((-73.70098 40.7389, -73…
 4    11426 Bellerose  Queens  French …     1  6.17e-4 ((-73.7227 40.75373, -73…
 5    11365 Fresh Mea… Queens  French …     7  4.32e-3 ((-73.81089 40.72717, -7…
 6    11373 Elmhurst   Queens  French …    14  8.64e-3 ((-73.88722 40.72753, -7…
 7    11001 Floral Pa… Queens  <NA>        NA NA       ((-73.70098 40.7389, -73…
 8    11375 Forest Hi… Queens  French …     8  4.94e-3 ((-73.85625 40.73672, -7…
 9    11427 Queens Vi… Queens  French …     2  1.23e-3 ((-73.74169 40.73682, -7…
10    11374 Rego Park  Queens  French …     6  3.70e-3 ((-73.86451 40.73407, -7…
# ℹ 252 more rows
…
fb_map2 <- left_join(nyc_zips, 
                     nyc_fb2, 
                     by = "zip_code")

Keep the Zero-count Zips

fb_map2 |> select(zip_code, po_name, borough, breed_rc:freq, geometry)

Simple feature collection with 262 features and 6 fields
Geometry type: POLYGON
Dimension:     XY
Bounding box:  xmin: -74.25576 ymin: 40.49584 xmax: -73.6996 ymax: 40.91517
Geodetic CRS:  WGS 84
# A tibble: 262 × 7
   zip_code po_name     borough breed_rc     n    freq                  geometry
      <int> <chr>       <chr>   <chr>    <int>   <dbl>             <POLYGON [°]>
 1    11372 Jackson He… Queens  French …    13 8.02e-3 ((-73.86942 40.74916, -7…
 2    11004 Glen Oaks   Queens  French …     1 6.17e-4 ((-73.71068 40.75004, -7…
 3    11040 New Hyde P… Queens  French …     0 0       ((-73.70098 40.7389, -73…
 4    11426 Bellerose   Queens  French …     1 6.17e-4 ((-73.7227 40.75373, -73…
 5    11365 Fresh Mead… Queens  French …     7 4.32e-3 ((-73.81089 40.72717, -7…
 6    11373 Elmhurst    Queens  French …    14 8.64e-3 ((-73.88722 40.72753, -7…
 7    11001 Floral Park Queens  French …     0 0       ((-73.70098 40.7389, -73…
 8    11375 Forest Hil… Queens  French …     8 4.94e-3 ((-73.85625 40.73672, -7…
 9    11427 Queens Vil… Queens  French …     2 1.23e-3 ((-73.74169 40.73682, -7…
10    11374 Rego Park   Queens  French …     6 3.70e-3 ((-73.86451 40.73407, -7…
# ℹ 252 more rows
…
Dorling Cartograms

counties_sf

Simple feature collection with 3222 features and 18 fields
Geometry type: MULTIPOLYGON
Dimension:     XY
Bounding box:  xmin: -6433624 ymin: -2354597 xmax: 3667987 ymax: 3912355
Projected CRS: NAD27 / US National Atlas Equal Area
First 10 features:
   fips                    name white black asian nh_white hispanic    pop
1 01069 Houston County, Alabama 71260 29166   987    69420     3844 107040
2 01023 Choctaw County, Alabama  7180  5062    15     7162      143  12669
3 01005 Barbour County, Alabama 11309 11668   126    11084     1202  24877
4 01107 Pickens County, Alabama 10880  7506    10    10141      987  18925
5 01033 Colbert County, Alabama 44698  9185   214    44485     1837  57270
      prop_pop prop_black  prop_hisp prop_white prop_nhwhite   prop_asian
1 3.201244e-04  0.2724776 0.03591181  0.6657324    0.6485426 0.0092208520
2 3.788917e-05  0.3995580 0.01128739  0.5667377    0.5653169 0.0011839924
3 7.439962e-05  0.4690276 0.04831772  0.4545966    0.4455521 0.0050649194
4 5.659898e-05  0.3966182 0.05215324  0.5749009    0.5358520 0.0005284016
5 1.712773e-04  0.1603807 0.03207613  0.7804784    0.7767592 0.0037366859
                        geometry black_disc hisp_disc nhwhite_disc asian_disc
1 MULTIPOLYGON (((1363666 -14...         30        <5           65         <5
2 MULTIPOLYGON (((1093349 -13...         40        <5           60         <5
3 MULTIPOLYGON (((1353585 -13...         50        <5           45         <5
4 MULTIPOLYGON (((1091358 -12...         40        10           55         <5
5 MULTIPOLYGON (((1088100 -10...         20        <5           80         <5
 [ reached 'max' / getOption("max.print") -- omitted 5 rows ]
…
