Data Visualization with R and the Tidyverse – Data Visualization. 9 - Case Studies
…
What to do instead?

fredts <- as_tibble(fredts)
fredts

# A tibble: 357 × 5
   date       sp500 monbase sp500_i monbase_i
   <date>     <dbl>   <int>   <dbl>     <dbl>
 1 2009-03-11  697. 1542228    100       100 
 2 2009-03-18  767. 1693133    110.      110.
 3 2009-03-25  799. 1693133    115.      110.
 4 2009-04-01  809. 1733017    116.      112.
 5 2009-04-08  831. 1733017    119.      112.
 6 2009-04-15  852. 1789878    122.      116.
 7 2009-04-22  852. 1789878    122.      116.
 8 2009-04-29  861. 1709369    124.      111.
 9 2009-05-06  896. 1709369    129.      111.
10 2009-05-13  908. 1805373    130.      117.
# ℹ 347 more rows

Pivot the data

fredts

# A tibble: 357 × 5
   date       sp500 monbase sp500_i monbase_i
   <date>     <dbl>   <int>   <dbl>     <dbl>
 1 2009-03-11  697. 1542228    100       100 
 2 2009-03-18  767. 1693133    110.      110.
 3 2009-03-25  799. 1693133    115.      110.
 4 2009-04-01  809. 1733017    116.      112.
 5 2009-04-08  831. 1733017    119.      112.
 6 2009-04-15  852. 1789878    122.      116.
 7 2009-04-22  852. 1789878    122.      116.
 8 2009-04-29  861. 1709369    124.      111.
 9 2009-05-06  896. 1709369    129.      111.
10 2009-05-13  908. 1805373    130.      117.
# ℹ 347 more rows

Pivot the data

fredts |>
  select(date, sp500_i, monbase_i)

# A tibble: 357 × 3
   date       sp500_i monbase_i
   <date>       <dbl>     <dbl>
 1 2009-03-11    100       100 
 2 2009-03-18    110.      110.
 3 2009-03-25    115.      110.
 4 2009-04-01    116.      112.
 5 2009-04-08    119.      112.
 6 2009-04-15    122.      116.
 7 2009-04-22    122.      116.
 8 2009-04-29    124.      111.
 9 2009-05-06    129.      111.
10 2009-05-13    130.      117.
# ℹ 347 more rows

Pivot the data

fredts |>
  select(date, sp500_i, monbase_i)  |>
  pivot_longer(sp500_i:monbase_i,
               names_to = "series",
               values_to = "score")

# A tibble: 714 × 3
   date       series    score
   <date>     <chr>     <dbl>
 1 2009-03-11 sp500_i    100 
 2 2009-03-11 monbase_i  100 
 3 2009-03-18 sp500_i    110.
 4 2009-03-18 monbase_i  110.
 5 2009-03-25 sp500_i    115.
 6 2009-03-25 monbase_i  110.
 7 2009-04-01 sp500_i    116.
 8 2009-04-01 monbase_i  112.
 9 2009-04-08 sp500_i    119.
10 2009-04-08 monbase_i  112.
# ℹ 704 more rows
…
Pivot the data

fredts |>
  select(date, sp500_i, monbase_i)  |>
  pivot_longer(sp500_i:monbase_i,
               names_to = "series",
               values_to = "score") ->
  fredts_m

Make two plots

fredts_m

# A tibble: 714 × 3
   date       series    score
   <date>     <chr>     <dbl>
 1 2009-03-11 sp500_i    100 
 2 2009-03-11 monbase_i  100 
 3 2009-03-18 sp500_i    110.
 4 2009-03-18 monbase_i  110.
 5 2009-03-25 sp500_i    115.
 6 2009-03-25 monbase_i  110.
 7 2009-04-01 sp500_i    116.
 8 2009-04-01 monbase_i  112.
 9 2009-04-08 sp500_i    119.
10 2009-04-08 monbase_i  112.
# ℹ 704 more rows
…
# The original df
fredts

# A tibble: 357 × 5
   date       sp500 monbase sp500_i monbase_i
   <date>     <dbl>   <int>   <dbl>     <dbl>
 1 2009-03-11  697. 1542228    100       100 
 2 2009-03-18  767. 1693133    110.      110.
 3 2009-03-25  799. 1693133    115.      110.
 4 2009-04-01  809. 1733017    116.      112.
 5 2009-04-08  831. 1733017    119.      112.
 6 2009-04-15  852. 1789878    122.      116.
 7 2009-04-22  852. 1789878    122.      116.
 8 2009-04-29  861. 1709369    124.      111.
 9 2009-05-06  896. 1709369    129.      111.
10 2009-05-13  908. 1805373    130.      117.
# ℹ 347 more rows
…
OK boomer

The demog package

# remotes::install_github("kjhealy/demog")
# library(demog)

okboomer

# A tibble: 1,644 × 12
    year month n_days births total_pop births_pct births_pct_day date      
   <dbl> <dbl>  <dbl>  <dbl>     <dbl>      <dbl>          <dbl> <date>    
 1  1938     1     31  51820  41215000    0.00126           40.6 1938-01-01
 2  1938     2     28  47421  41215000    0.00115           41.1 1938-02-01
 3  1938     3     31  54887  41215000    0.00133           43.0 1938-03-01
 4  1938     4     30  54623  41215000    0.00133           44.2 1938-04-01
 5  1938     5     31  56853  41215000    0.00138           44.5 1938-05-01
 6  1938     6     30  53145  41215000    0.00129           43.0 1938-06-01
 7  1938     7     31  53214  41215000    0.00129           41.6 1938-07-01
 8  1938     8     31  50444  41215000    0.00122           39.5 1938-08-01
 9  1938     9     30  50545  41215000    0.00123           40.9 1938-09-01
10  1938    10     31  50079  41215000    0.00122           39.2 1938-10-01
# ℹ 1,634 more rows
# ℹ 4 more variables: seasonal <dbl>, trend <dbl>, remainder <dbl>,
#   country <chr>

Boomer Line Graph

okboomer

# A tibble: 1,644 × 12
    year month n_days births total_pop births_pct births_pct_day date      
   <dbl> <dbl>  <dbl>  <dbl>     <dbl>      <dbl>          <dbl> <date>    
 1  1938     1     31  51820  41215000    0.00126           40.6 1938-01-01
 2  1938     2     28  47421  41215000    0.00115           41.1 1938-02-01
 3  1938     3     31  54887  41215000    0.00133           43.0 1938-03-01
 4  1938     4     30  54623  41215000    0.00133           44.2 1938-04-01
 5  1938     5     31  56853  41215000    0.00138           44.5 1938-05-01
 6  1938     6     30  53145  41215000    0.00129           43.0 1938-06-01
 7  1938     7     31  53214  41215000    0.00129           41.6 1938-07-01
 8  1938     8     31  50444  41215000    0.00122           39.5 1938-08-01
 9  1938     9     30  50545  41215000    0.00123           40.9 1938-09-01
10  1938    10     31  50079  41215000    0.00122           39.2 1938-10-01
# ℹ 1,634 more rows
# ℹ 4 more variables: seasonal <dbl>, trend <dbl>, remainder <dbl>,
#   country <chr>

Boomer Line Graph

okboomer |>
    filter(country == "United States")

# A tibble: 996 × 12
    year month n_days births total_pop births_pct births_pct_day date      
   <dbl> <dbl>  <dbl>  <dbl>     <dbl>      <dbl>          <dbl> <date>    
 1  1933     1     31 180545 125579000    0.00144           46.4 1933-01-01
 2  1933     2     28 165986 125579000    0.00132           47.2 1933-02-01
 3  1933     3     31 183762 125579000    0.00146           47.2 1933-03-01
 4  1933     4     30 171354 125579000    0.00136           45.5 1933-04-01
 5  1933     5     31 174811 125579000    0.00139           44.9 1933-05-01
 6  1933     6     30 169255 125579000    0.00135           44.9 1933-06-01
 7  1933     7     31 180880 125579000    0.00144           46.5 1933-07-01
 8  1933     8     31 181856 125579000    0.00145           46.7 1933-08-01
 9  1933     9     30 167637 125579000    0.00133           44.5 1933-09-01
10  1933    10     31 167055 125579000    0.00133           42.9 1933-10-01
# ℹ 986 more rows
# ℹ 4 more variables: seasonal <dbl>, trend <dbl>, remainder <dbl>,
#   country <chr>
…
Tiled Heatmap

okboomer

# A tibble: 1,644 × 12
    year month n_days births total_pop births_pct births_pct_day date      
   <dbl> <dbl>  <dbl>  <dbl>     <dbl>      <dbl>          <dbl> <date>    
 1  1938     1     31  51820  41215000    0.00126           40.6 1938-01-01
 2  1938     2     28  47421  41215000    0.00115           41.1 1938-02-01
 3  1938     3     31  54887  41215000    0.00133           43.0 1938-03-01
 4  1938     4     30  54623  41215000    0.00133           44.2 1938-04-01
 5  1938     5     31  56853  41215000    0.00138           44.5 1938-05-01
 6  1938     6     30  53145  41215000    0.00129           43.0 1938-06-01
 7  1938     7     31  53214  41215000    0.00129           41.6 1938-07-01
 8  1938     8     31  50444  41215000    0.00122           39.5 1938-08-01
 9  1938     9     30  50545  41215000    0.00123           40.9 1938-09-01
10  1938    10     31  50079  41215000    0.00122           39.2 1938-10-01
# ℹ 1,634 more rows
# ℹ 4 more variables: seasonal <dbl>, trend <dbl>, remainder <dbl>,
#   country <chr>
Tiled Heatmap

okboomer |>
    mutate(year_fct =
             factor(year,
                    levels = unique(year),
                    ordered = TRUE),
           month_fct = factor(month,
                              levels = rev(c(1:12)),
                              labels = rev(c("Jan", "Feb", "Mar", "Apr",
                                  "May", "Jun", "Jul", "Aug",
                                  "Sep", "Oct", "Nov", "Dec")),
                              ordered = TRUE))

# A tibble: 1,644 × 14
    year month n_days births total_pop births_pct births_pct_day date      
   <dbl> <dbl>  <dbl>  <dbl>     <dbl>      <dbl>          <dbl> <date>    
 1  1938     1     31  51820  41215000    0.00126           40.6 1938-01-01
 2  1938     2     28  47421  41215000    0.00115           41.1 1938-02-01
 3  1938     3     31  54887  41215000    0.00133           43.0 1938-03-01
 4  1938     4     30  54623  41215000    0.00133           44.2 1938-04-01
 5  1938     5     31  56853  41215000    0.00138           44.5 1938-05-01
 6  1938     6     30  53145  41215000    0.00129           43.0 1938-06-01
 7  1938     7     31  53214  41215000    0.00129           41.6 1938-07-01
 8  1938     8     31  50444  41215000    0.00122           39.5 1938-08-01
 9  1938     9     30  50545  41215000    0.00123           40.9 1938-09-01
10  1938    10     31  50079  41215000    0.00122           39.2 1938-10-01
# ℹ 1,634 more rows
# ℹ 6 more variables: seasonal <dbl>, trend <dbl>, remainder <dbl>,
#   country <chr>, year_fct <ord>, month_fct <ord>
…
okboomer |>
    mutate(year_fct =
             factor(year,
                    levels = unique(year),
                    ordered = TRUE),
           month_fct = factor(month,
                              levels = rev(c(1:12)),
                              labels = rev(c("Jan", "Feb", "Mar", "Apr",
                                  "May", "Jun", "Jul", "Aug",
                                  "Sep", "Oct", "Nov", "Dec")),
                              ordered = TRUE)) |>
    select(year, month, year_fct, month_fct, everything())

# A tibble: 1,644 × 14
    year month year_fct month_fct n_days births total_pop births_pct
   <dbl> <dbl> <ord>    <ord>      <dbl>  <dbl>     <dbl>      <dbl>
 1  1938     1 1938     Jan           31  51820  41215000    0.00126
 2  1938     2 1938     Feb           28  47421  41215000    0.00115
 3  1938     3 1938     Mar           31  54887  41215000    0.00133
 4  1938     4 1938     Apr           30  54623  41215000    0.00133
 5  1938     5 1938     May           31  56853  41215000    0.00138
 6  1938     6 1938     Jun           30  53145  41215000    0.00129
 7  1938     7 1938     Jul           31  53214  41215000    0.00129
 8  1938     8 1938     Aug           31  50444  41215000    0.00122
 9  1938     9 1938     Sep           30  50545  41215000    0.00123
10  1938    10 1938     Oct           31  50079  41215000    0.00122
# ℹ 1,634 more rows
# ℹ 6 more variables: births_pct_day <dbl>, date <date>, seasonal <dbl>,
#   trend <dbl>, remainder <dbl>, country <chr>
…
okboomer |>
    mutate(year_fct =
             factor(year,
                    levels = unique(year),
                    ordered = TRUE),
           month_fct = factor(month,
                              levels = rev(c(1:12)),
                              labels = rev(c("Jan", "Feb", "Mar", "Apr",
                                  "May", "Jun", "Jul", "Aug",
                                  "Sep", "Oct", "Nov", "Dec")),
                              ordered = TRUE)) |>
    select(year, month, year_fct, month_fct, everything()) |>
  filter(country == "United States")

# A tibble: 996 × 14
    year month year_fct month_fct n_days births total_pop births_pct
   <dbl> <dbl> <ord>    <ord>      <dbl>  <dbl>     <dbl>      <dbl>
 1  1933     1 1933     Jan           31 180545 125579000    0.00144
 2  1933     2 1933     Feb           28 165986 125579000    0.00132
 3  1933     3 1933     Mar           31 183762 125579000    0.00146
 4  1933     4 1933     Apr           30 171354 125579000    0.00136
 5  1933     5 1933     May           31 174811 125579000    0.00139
 6  1933     6 1933     Jun           30 169255 125579000    0.00135
 7  1933     7 1933     Jul           31 180880 125579000    0.00144
 8  1933     8 1933     Aug           31 181856 125579000    0.00145
 9  1933     9 1933     Sep           30 167637 125579000    0.00133
10  1933    10 1933     Oct           31 167055 125579000    0.00133
# ℹ 986 more rows
# ℹ 6 more variables: births_pct_day <dbl>, date <date>, seasonal <dbl>,
#   trend <dbl>, remainder <dbl>, country <chr>
…
Beeswarms and
bespoke labels

The cavax package

# remotes::install_github("kjhealy/cavax)
library(cavax)

cavax

# A tibble: 7,032 × 13
     code county name  type  district city  enrollment pbe_pct exempt med_exempt
    <dbl> <chr>  <chr> <chr> <chr>    <chr>      <dbl>   <dbl>  <dbl>      <dbl>
 1 1.10e5 ALAME… FAME… PUBL… ALAMEDA… NEWA…        109      13  12.8        0   
 2 6.00e6 ALAME… COX … PUBL… ALAMEDA… OAKL…        115       1   0.87       0.87
 3 6.00e6 ALAME… LAZE… PUBL… ALAMEDA… OAKL…         40       0   0          0   
 4 1.24e5 ALAME… YU M… PUBL… ALAMEDA… OAKL…         52      10   9.62       0   
 5 6.10e6 ALAME… AMEL… PUBL… ALAMEDA… ALAM…        128       2   1.56       0   
 6 6.11e6 ALAME… BAY … PUBL… ALAMEDA… ALAM…         70       1   1.43       0   
 7 6.09e6 ALAME… DONA… PUBL… ALAMEDA… ALAM…        100       3   3          0   
 8 6.09e6 ALAME… EDIS… PUBL… ALAMEDA… ALAM…         70       1   1.43       0   
 9 6.09e6 ALAME… FRAN… PUBL… ALAMEDA… ALAM…         95       1   1.05       1.05
10 6.09e6 ALAME… FRAN… PUBL… ALAMEDA… ALAM…         50       2   2          0   
# ℹ 7,022 more rows
# ℹ 3 more variables: rel_exempt <dbl>, mwc <fct>, kind <fct>
…
library(ggbeeswarm)

Aux Info Panel

library(ggbeeswarm)
make_comma <- scales::label_comma()

Aux Info Panel

library(ggbeeswarm)
make_comma <- scales::label_comma()

cavax

# A tibble: 7,032 × 13
     code county name  type  district city  enrollment pbe_pct exempt med_exempt
    <dbl> <chr>  <chr> <chr> <chr>    <chr>      <dbl>   <dbl>  <dbl>      <dbl>
 1 1.10e5 ALAME… FAME… PUBL… ALAMEDA… NEWA…        109      13  12.8        0   
 2 6.00e6 ALAME… COX … PUBL… ALAMEDA… OAKL…        115       1   0.87       0.87
 3 6.00e6 ALAME… LAZE… PUBL… ALAMEDA… OAKL…         40       0   0          0   
 4 1.24e5 ALAME… YU M… PUBL… ALAMEDA… OAKL…         52      10   9.62       0   
 5 6.10e6 ALAME… AMEL… PUBL… ALAMEDA… ALAM…        128       2   1.56       0   
 6 6.11e6 ALAME… BAY … PUBL… ALAMEDA… ALAM…         70       1   1.43       0   
 7 6.09e6 ALAME… DONA… PUBL… ALAMEDA… ALAM…        100       3   3          0   
 8 6.09e6 ALAME… EDIS… PUBL… ALAMEDA… ALAM…         70       1   1.43       0   
 9 6.09e6 ALAME… FRAN… PUBL… ALAMEDA… ALAM…         95       1   1.05       1.05
10 6.09e6 ALAME… FRAN… PUBL… ALAMEDA… ALAM…         50       2   2          0   
# ℹ 7,022 more rows
# ℹ 3 more variables: rel_exempt <dbl>, mwc <fct>, kind <fct>

Aux Info Panel

library(ggbeeswarm)
make_comma <- scales::label_comma()

cavax |>
  group_by(mwc)

# A tibble: 7,032 × 13
# Groups:   mwc [11]
     code county name  type  district city  enrollment pbe_pct exempt med_exempt
    <dbl> <chr>  <chr> <chr> <chr>    <chr>      <dbl>   <dbl>  <dbl>      <dbl>
 1 1.10e5 ALAME… FAME… PUBL… ALAMEDA… NEWA…        109      13  12.8        0   
 2 6.00e6 ALAME… COX … PUBL… ALAMEDA… OAKL…        115       1   0.87       0.87
 3 6.00e6 ALAME… LAZE… PUBL… ALAMEDA… OAKL…         40       0   0          0   
 4 1.24e5 ALAME… YU M… PUBL… ALAMEDA… OAKL…         52      10   9.62       0   
 5 6.10e6 ALAME… AMEL… PUBL… ALAMEDA… ALAM…        128       2   1.56       0   
 6 6.11e6 ALAME… BAY … PUBL… ALAMEDA… ALAM…         70       1   1.43       0   
 7 6.09e6 ALAME… DONA… PUBL… ALAMEDA… ALAM…        100       3   3          0   
 8 6.09e6 ALAME… EDIS… PUBL… ALAMEDA… ALAM…         70       1   1.43       0   
 9 6.09e6 ALAME… FRAN… PUBL… ALAMEDA… ALAM…         95       1   1.05       1.05
10 6.09e6 ALAME… FRAN… PUBL… ALAMEDA… ALAM…         50       2   2          0   
# ℹ 7,022 more rows
# ℹ 3 more variables: rel_exempt <dbl>, mwc <fct>, kind <fct>
…
aux_info |>
  select(mwc, info_schools, info_students) |>
  mutate(across(everything(), as.character)) |>
  group_split(mwc) |>
  set_names(keys) |>  # There's a better way ...
  map_chr(.f = paste, sep = "", collapse = "\n") ->
  special_x_labs

At last, the Beeplot

cavax

# A tibble: 7,032 × 13
     code county name  type  district city  enrollment pbe_pct exempt med_exempt
    <dbl> <chr>  <chr> <chr> <chr>    <chr>      <dbl>   <dbl>  <dbl>      <dbl>
 1 1.10e5 ALAME… FAME… PUBL… ALAMEDA… NEWA…        109      13  12.8        0   
 2 6.00e6 ALAME… COX … PUBL… ALAMEDA… OAKL…        115       1   0.87       0.87
 3 6.00e6 ALAME… LAZE… PUBL… ALAMEDA… OAKL…         40       0   0          0   
 4 1.24e5 ALAME… YU M… PUBL… ALAMEDA… OAKL…         52      10   9.62       0   
 5 6.10e6 ALAME… AMEL… PUBL… ALAMEDA… ALAM…        128       2   1.56       0   
 6 6.11e6 ALAME… BAY … PUBL… ALAMEDA… ALAM…         70       1   1.43       0   
 7 6.09e6 ALAME… DONA… PUBL… ALAMEDA… ALAM…        100       3   3          0   
 8 6.09e6 ALAME… EDIS… PUBL… ALAMEDA… ALAM…         70       1   1.43       0   
 9 6.09e6 ALAME… FRAN… PUBL… ALAMEDA… ALAM…         95       1   1.05       1.05
10 6.09e6 ALAME… FRAN… PUBL… ALAMEDA… ALAM…         50       2   2          0   
# ℹ 7,022 more rows
# ℹ 3 more variables: rel_exempt <dbl>, mwc <fct>, kind <fct>

At last, the Beeplot

cavax |>
  filter(mwc %nin% c("Private Christian Montessori",
                     "Charter Montessori",
                     "Private Jewish/Islamic"))

# A tibble: 7,015 × 13
     code county name  type  district city  enrollment pbe_pct exempt med_exempt
    <dbl> <chr>  <chr> <chr> <chr>    <chr>      <dbl>   <dbl>  <dbl>      <dbl>
 1 1.10e5 ALAME… FAME… PUBL… ALAMEDA… NEWA…        109      13  12.8        0   
 2 6.00e6 ALAME… COX … PUBL… ALAMEDA… OAKL…        115       1   0.87       0.87
 3 6.00e6 ALAME… LAZE… PUBL… ALAMEDA… OAKL…         40       0   0          0   
 4 1.24e5 ALAME… YU M… PUBL… ALAMEDA… OAKL…         52      10   9.62       0   
 5 6.10e6 ALAME… AMEL… PUBL… ALAMEDA… ALAM…        128       2   1.56       0   
 6 6.11e6 ALAME… BAY … PUBL… ALAMEDA… ALAM…         70       1   1.43       0   
 7 6.09e6 ALAME… DONA… PUBL… ALAMEDA… ALAM…        100       3   3          0   
 8 6.09e6 ALAME… EDIS… PUBL… ALAMEDA… ALAM…         70       1   1.43       0   
 9 6.09e6 ALAME… FRAN… PUBL… ALAMEDA… ALAM…         95       1   1.05       1.05
10 6.09e6 ALAME… FRAN… PUBL… ALAMEDA… ALAM…         50       2   2          0   
# ℹ 7,005 more rows
# ℹ 3 more variables: rel_exempt <dbl>, mwc <fct>, kind <fct>
…
